/* XPM */
static char *pixmap[] = {
/* width height ncols cpp */
"32 32 188 2",
  "00 c #000000",
  "01 c #E5E5E5",
  "02 c #E6E6E6",
  "03 c #E7E7E7",
  "04 c #E0E0E0",
  "05 c #C6C6C6",
  "06 c #C5C5C5",
  "07 c #C8C8C8",
  "08 c #E1E1E1",
  "09 c #C2C2C2",
  "0A c #C1C1C1",
  "0B c #C4C4C4",
  "0C c #D9D9D9",
  "0D c #D8D8D8",
  "0E c #D7D7D7",
  "0F c #DFDFDF",
  "10 c #DADADA",
  "11 c #B2B2B2",
  "12 c #A3A3A3",
  "13 c #AAAAAA",
  "14 c #B0B0B0",
  "15 c #434343",
  "16 c #404040",
  "17 c #606060",
  "18 c #7B7B7B",
  "19 c #959595",
  "1A c #ADADAD",
  "1B c #B4B4B4",
  "1C c #DC866F",
  "1D c #FE3B08",
  "1E c #FD410F",
  "1F c #FE4210",
  "20 c #FF3803",
  "21 c #F57D5D",
  "22 c #CACACA",
  "23 c #9C9C9C",
  "24 c #505050",
  "25 c #4E4E4E",
  "26 c #5C5C5C",
  "27 c #060606",
  "28 c #131313",
  "29 c #676767",
  "2A c #C3BDBB",
  "2B c #F16E4B",
  "2C c #FC4C1E",
  "2D c #EBC6BC",
  "2E c #DCDCDC",
  "2F c #9D9D9D",
  "30 c #535353",
  "31 c #141414",
  "32 c #565656",
  "33 c #848484",
  "34 c #333333",
  "35 c #D1D1D1",
  "36 c #EACCC4",
  "37 c #FC5022",
  "38 c #EFA793",
  "39 c #D6D6D6",
  "3A c #454545",
  "3B c #747474",
  "3C c #A6A6A6",
  "3D c #0B0B0B",
  "3E c #303030",
  "3F c #BCBCBC",
  "40 c #CECECE",
  "41 c #EFA895",
  "42 c #F1967E",
  "43 c #CFCFCF",
  "44 c #4F4F4F",
  "45 c #080808",
  "46 c #949494",
  "47 c #BBBBBB",
  "48 c #2E2E2E",
  "49 c #2A2A2A",
  "4A c #9A9A9A",
  "4B c #BFBFBF",
  "4C c #595959",
  "4D c #B3B3B3",
  "4E c #666666",
  "4F c #1D1D1D",
  "50 c #DEDEDE",
  "51 c #646464",
  "52 c #BDBDBD",
  "53 c #9B9B9B",
  "54 c #8E8E8E",
  "55 c #E3E3E3",
  "56 c #BEBEBE",
  "57 c #CCCCCC",
  "58 c #D4D4D4",
  "59 c #D88F7C",
  "5A c #C2BFBF",
  "5B c #D49685",
  "5C c #FD3D0A",
  "5D c #E67050",
  "5E c #CFBAB5",
  "5F c #E4E4E4",
  "60 c #C1C1EA",
  "61 c #9C9CEE",
  "62 c #C5B8B5",
  "63 c #EA6643",
  "64 c #DE8269",
  "65 c #FC3F0D",
  "66 c #F9592F",
  "67 c #EEB0A0",
  "68 c #5555F6",
  "69 c #0D0DFE",
  "6A c #ACACE4",
  "6B c #C4BAB7",
  "6C c #D7907D",
  "6D c #F05830",
  "6E c #DD836B",
  "6F c #FC400E",
  "70 c #F3896C",
  "71 c #B7B7EB",
  "72 c #0303FF",
  "73 c #2929F4",
  "74 c #B2B2C6",
  "75 c #C8B2AC",
  "76 c #E76E4E",
  "77 c #FD3C08",
  "78 c #E07C62",
  "79 c #FF3904",
  "7A c #FD4413",
  "7B c #F19A82",
  "7C c #6B6BF4",
  "7D c #3D3DF8",
  "7E c #4545EE",
  "7F c #4242EB",
  "80 c #9494D0",
  "81 c #D29C8E",
  "82 c #F2552B",
  "83 c #E57152",
  "84 c #D3D3D3",
  "85 c #F67553",
  "86 c #ECBEB1",
  "87 c #C6B6B2",
  "88 c #DC856E",
  "89 c #D88E7A",
  "8A c #E2E2E2",
  "8B c #C9C9C9",
  "8C c #DDDDDD",
  "8D c #AEAEAE",
  "8E c #787878",
  "8F c #636363",
  "90 c #656565",
  "91 c #3F3F3F",
  "92 c #353535",
  "93 c #818181",
  "94 c #CDCDCD",
  "95 c #B7B7B7",
  "96 c #ACACAC",
  "97 c #090909",
  "98 c #151515",
  "99 c #D5D5D5",
  "9A c #C3C3C3",
  "9B c #C6C2C0",
  "9C c #DB8F7A",
  "9D c #989898",
  "9E c #6A6A6A",
  "9F c #0F0F0F",
  "A0 c #EBB7A9",
  "A1 c #FE410F",
  "A2 c #ECAF9F",
  "A3 c #444444",
  "A4 c #888888",
  "A5 c #3E3E3E",
  "A6 c #E7E1E0",
  "A7 c #F76D48",
  "A8 c #F9643C",
  "A9 c #E6E3E2",
  "AA c #DBDBDB",
  "AB c #979797",
  "AC c #626262",
  "AD c #363636",
  "AE c #575757",
  "AF c #1B1B1B",
  "B0 c #222222",
  "B1 c #545454",
  "B2 c #868686",
  "B3 c #B8B8B8",
  "B4 c #D2D2D2",
  "B5 c #ECBAAC",
  "B6 c #FD4412",
  "B7 c #FD4311",
  "B8 c #EEAB99",
  "B9 c #808080",
  "BA c #737373",
  ".. s None c None",
  "0102020202020202020202020202020202020202020202020202020304050607",
  "0202020202020202020202020202020202020202020202020202020208090A0B",
  "0C0D0D0D0D0D0D0D0D0D0D0D0D0D0D0E0F0202020202020202020202100A0A06",
  "060A11120A0A0A0A0A0A0A0A0A0A0A0B040202020202020202020208130A0A06",
  "060A1415161718191A1B0A0A0A1C1D1E1F2021020202020202222324250A0A06",
  "060A0A260000002728290A0A0A2A2B20202C2D0202022E2F30310000320A0A06",
  "060A0A3300000000342F0A0A0A353637203802020202393A000000003B0A0A06",
  "060A0A3C3D00003E3F0A0A0A40010241420202020202024344000045460A0A06",
  "060A0A474800494A0A0A0A220102020202020202020202104B4C00314D0A0A06",
  "060A0A0A4E4F140A0A0A050802020202020202020202500B0A..5134520A0A06",
  "060A0A0A53540A0A0A092E0202020202020202020255070A0A0A..2F560A0A06",
  "060A0A0A0A0A0A0A0A390202020202020202020201570A0A0A0A0A0A0A0A0A06",
  "060A0A0A0A0A0A0A580202020202020202020202400A0A0A0A0A0A0A0A0A0A06",
  "060A0A0A595A0A400202020202020202020202580A0A0A0A0A0A0A595B0A0A06",
  "060A0A0A5C5D5E5F020202020202026061020C090A0A0A0A0A626320640A0A06",
  "060A0A0A652066670202020202020268696A0B0A0A0A0A6B6C6D20206E0A0A06",
  "060A0A0A6F20207002020202020271697273740A0A0A0A7576772020780A0A06",
  "060A0A0A797A7B020202020202027C7D7E7F800A0A0A0A0A0A818220830A0A06",
  "060A0A848586020202020202020202580A0A0A0A0A0A0A0A0A0A8788890A0A06",
  "060A400202020202020202020202100A0A0A0A0A0A0A0A0A0A0A0A0A0A0A0A06",
  "065701020202020202020202022E090A0A0A0A0A0A0A0A0A0A0A0A0A0A0A0A06",
  "228A02028B8C02020202020204060A0A0A0A0A0A0A0A0A0A0A0A528D..0A0A06",
  "0F0202028E8F0F020202025F220A0A0A0A0A0A0A0A0A0A0A0A0A90914B0A0A06",
  "0202020F9200930202025F940A0A0A0A0A0A0A0A0A0A0A0A3F4C004F950A0A06",
  "020202969700984A0202999A0606069B9C9B0606060606113A0000459D060A06",
  "0202029E0000009F11025F5F5F5F5FA0A1A25F5F5F5F0EA300000000A4500740",
  "020202A500000045170202020202A6A720A8A9020202AAABACAD9F00AE04840D",
  "020205AFB0B1B2B3B40202020202B5B61FB7B80202020202025F0BB9BA0F2284",
  "0202223C2202020202020202020202020202020202020202020202020204B439",
  "02020202020202020202020202020202020202020202020202020202020F2235",
  "02020202020202020202020202020202020202020202020202020202020F22B4",
  "01020202020202020202020202020202020202020202020202020202030F4084",
};
